Implementation • epidemia
…
The prior distribution for the auxiliary parameter \(\phi\), if it exists. Only used if family is "neg_binom" (reciprocal dispersion), "quasi_poisson" (dispersion), "normal" (standard deviation) or "log_normal" (sigma parameter).

...

Additional arguments for model.frame.

6 Data

Recall that the data argument to epim() must contain all variables used in the transmission, infection and
observational models. For our example,
this looks like

data

## # A tibble: 899 x 9
## # Groups:   country [11]
##    country date       schools_univers… self_isolating_… public_events lockdown
##    <fct>   <date>                <int>            <int>         <int>    <int>
##  1 Austria 2020-02-22                0                0             0        0
##  2 Austria 2020-02-23                0                0             0        0
##  3 Austria 2020-02-24                0                0             0        0
##  4 Austria 2020-02-25                0                0             0        0
##  5 Austria 2020-02-26                0                0             0        0
##  6 Austria 2020-02-27                0                0             0        0
##  7 Austria 2020-02-28                0                0             0        0
##  8 Austria 2020-02-29                0                0             0        0
##  9 Austria 2020-03-01                0                0             0        0
## 10 Austria 2020-03-02                0                0             0        0
## # … with 889 more rows, and 3 more variables:
## #   social_distancing_encouraged <int>, deaths <int>, pop <int>
…
